{
  "scriptFile": "__init__.py",
  "bindings": [
    {
      "authLevel": "function",
      "type": "httpTrigger",
      "direction": "in",
      "name": "req",
      "methods": [ "get" ],
      "route": "secrets/{name}"
    },
    {
      "type": "http",
      "direction": "out",
      "name": "$return"
    }
  ]
}
